<svg xmlns="http://www.w3.org/2000/svg" xmlns:xlink="http://www.w3.org/1999/xlink" style="margin: auto; display: block; shape-rendering: auto;" width="38px" height="38px" viewBox="0 0 100 100" preserveAspectRatio="xMidYMid">
<g transform="translate(25 50)">
<circle cx="0" cy="0" r="6" fill="#c9c9c9" transform="scale(0.257781 0.257781)">
  <animateTransform attributeName="transform"  type="scale" begin="-0.6535947712418301s" calcMode="spline" keySplines="0.3 0 0.7 1;0.3 0 0.7 1" values="0;1;0" keyTimes="0;0.5;1" dur="1.9607843137254901s" repeatCount="indefinite"></animateTransform>
</circle>
</g><g transform="translate(50 50)">
<circle cx="0" cy="0" r="6" fill="#c9c9c9" transform="scale(0.719944 0.719944)">
  <animateTransform attributeName="transform" type="scale" begin="-0.32679738562091504s" calcMode="spline" keySplines="0.3 0 0.7 1;0.3 0 0.7 1" values="0;1;0" keyTimes="0;0.5;1" dur="1.9607843137254901s" repeatCount="indefinite"></animateTransform>
</circle>
</g><g transform="translate(75 50)">
<circle cx="0" cy="0" r="6" fill="#c9c9c9" transform="scale(0.999732 0.999732)">
  <animateTransform attributeName="transform" type="scale" begin="0s" calcMode="spline" keySplines="0.3 0 0.7 1;0.3 0 0.7 1" values="0;1;0" keyTimes="0;0.5;1" dur="1.9607843137254901s" repeatCount="indefinite"></animateTransform>
</circle>
</g>
</svg>